{
    "elements": {
        "md-icon": {}
    },
    "attributes": {
        "layout": {},
        "ms-responsive-table": {
            "context": "table"
        },
        "flex": {},
        "translate-values": {
            "context": "span"
        },
        "ms-scroll": {
            "context": "div"
        }
    }
}